<svg version="1.1" id="Calque_1" xmlns="http://www.w3.org/2000/svg" xmlns:xlink="http://www.w3.org/1999/xlink" x="0px" y="0px"
	 viewBox="0 0 32 32" enable-background="new 0 0 32 32" xml:space="preserve">
<path id="XMLID_1_" d="M31.3,6.6c-1.1,0.5-2.3,0.8-3.6,1c1.3-0.8,2.3-2,2.8-3.5c-1.2,0.7-2.6,1.2-4,1.5c-1.1-1.2-2.8-2-4.6-2
	c-3.5,0-6.3,2.8-6.3,6.3c0,0.5,0.1,1,0.2,1.4c-5.2-0.3-9.9-2.8-13-6.6C2.3,5.7,2,6.8,2,7.9c0,2.2,1.1,4.1,2.8,5.2
	c-1,0-2-0.3-2.8-0.8c0,0,0,0.1,0,0.1c0,3,2.2,5.6,5,6.2c-0.5,0.1-1.1,0.2-1.7,0.2c-0.4,0-0.8,0-1.2-0.1c0.8,2.5,3.1,4.3,5.9,4.4
	c-2.2,1.7-4.9,2.7-7.8,2.7c-0.5,0-1,0-1.5-0.1c2.8,1.8,6.1,2.8,9.6,2.8c11.6,0,17.9-9.6,17.9-17.9c0-0.3,0-0.5,0-0.8
	C29.4,8.9,30.5,7.8,31.3,6.6z"/>
</svg>
